<?xml version="1.0" encoding="UTF-8"?>
<testsuite xmlns:xsi="http://www.w3.org/2001/XMLSchema-instance" xsi:noNamespaceSchemaLocation="https://maven.apache.org/surefire/maven-surefire-plugin/xsd/surefire-test-report-3.0.xsd" version="3.0" name="TestSuite" time="6.221" tests="3" errors="0" skipped="0" failures="0">
  <properties>
    <property name="sun.desktop" value="windows"/>
    <property name="awt.toolkit" value="sun.awt.windows.WToolkit"/>
    <property name="file.encoding.pkg" value="sun.io"/>
    <property name="java.specification.version" value="1.8"/>
    <property name="sun.cpu.isalist" value="amd64"/>
    <property name="sun.jnu.encoding" value="Cp1252"/>
    <property name="java.class.path" value="D:\Vinay\APIFrameworkYBL\target\test-classes;D:\Vinay\APIFrameworkYBL\target\classes;D:\Users\Madonna.Nadar\.m2\repository\io\rest-assured\rest-assured\5.0.1\rest-assured-5.0.1.jar;D:\Users\Madonna.Nadar\.m2\repository\org\apache\groovy\groovy\4.0.1\groovy-4.0.1.jar;D:\Users\Madonna.Nadar\.m2\repository\org\apache\groovy\groovy-xml\4.0.1\groovy-xml-4.0.1.jar;D:\Users\Madonna.Nadar\.m2\repository\org\apache\httpcomponents\httpclient\4.5.13\httpclient-4.5.13.jar;D:\Users\Madonna.Nadar\.m2\repository\org\apache\httpcomponents\httpcore\4.4.13\httpcore-4.4.13.jar;D:\Users\Madonna.Nadar\.m2\repository\commons-logging\commons-logging\1.2\commons-logging-1.2.jar;D:\Users\Madonna.Nadar\.m2\repository\commons-codec\commons-codec\1.11\commons-codec-1.11.jar;D:\Users\Madonna.Nadar\.m2\repository\org\apache\httpcomponents\httpmime\4.5.13\httpmime-4.5.13.jar;D:\Users\Madonna.Nadar\.m2\repository\org\hamcrest\hamcrest\2.1\hamcrest-2.1.jar;D:\Users\Madonna.Nadar\.m2\repository\org\ccil\cowan\tagsoup\tagsoup\1.2.1\tagsoup-1.2.1.jar;D:\Users\Madonna.Nadar\.m2\repository\io\rest-assured\json-path\5.0.1\json-path-5.0.1.jar;D:\Users\Madonna.Nadar\.m2\repository\org\apache\groovy\groovy-json\4.0.1\groovy-json-4.0.1.jar;D:\Users\Madonna.Nadar\.m2\repository\io\rest-assured\rest-assured-common\5.0.1\rest-assured-common-5.0.1.jar;D:\Users\Madonna.Nadar\.m2\repository\io\rest-assured\xml-path\5.0.1\xml-path-5.0.1.jar;D:\Users\Madonna.Nadar\.m2\repository\org\testng\testng\7.4.0\testng-7.4.0.jar;D:\Users\Madonna.Nadar\.m2\repository\com\beust\jcommander\1.78\jcommander-1.78.jar;D:\Users\Madonna.Nadar\.m2\repository\org\webjars\jquery\3.5.1\jquery-3.5.1.jar;D:\Users\Madonna.Nadar\.m2\repository\io\rest-assured\json-schema-validator\3.0.0\json-schema-validator-3.0.0.jar;D:\Users\Madonna.Nadar\.m2\repository\com\github\fge\json-schema-validator\2.2.6\json-schema-validator-2.2.6.jar;D:\Users\Madonna.Nadar\.m2\repository\com\google\code\findbugs\jsr305\3.0.0\jsr305-3.0.0.jar;D:\Users\Madonna.Nadar\.m2\repository\joda-time\joda-time\2.3\joda-time-2.3.jar;D:\Users\Madonna.Nadar\.m2\repository\com\googlecode\libphonenumber\libphonenumber\6.2\libphonenumber-6.2.jar;D:\Users\Madonna.Nadar\.m2\repository\com\github\fge\json-schema-core\1.2.5\json-schema-core-1.2.5.jar;D:\Users\Madonna.Nadar\.m2\repository\com\github\fge\uri-template\0.9\uri-template-0.9.jar;D:\Users\Madonna.Nadar\.m2\repository\com\github\fge\msg-simple\1.1\msg-simple-1.1.jar;D:\Users\Madonna.Nadar\.m2\repository\com\github\fge\btf\1.2\btf-1.2.jar;D:\Users\Madonna.Nadar\.m2\repository\com\google\guava\guava\16.0.1\guava-16.0.1.jar;D:\Users\Madonna.Nadar\.m2\repository\com\github\fge\jackson-coreutils\1.8\jackson-coreutils-1.8.jar;D:\Users\Madonna.Nadar\.m2\repository\org\mozilla\rhino\1.7R4\rhino-1.7R4.jar;D:\Users\Madonna.Nadar\.m2\repository\javax\mail\mailapi\1.4.3\mailapi-1.4.3.jar;D:\Users\Madonna.Nadar\.m2\repository\javax\activation\activation\1.1\activation-1.1.jar;D:\Users\Madonna.Nadar\.m2\repository\net\sf\jopt-simple\jopt-simple\4.6\jopt-simple-4.6.jar;D:\Users\Madonna.Nadar\.m2\repository\org\hamcrest\hamcrest-core\1.3\hamcrest-core-1.3.jar;D:\Users\Madonna.Nadar\.m2\repository\com\fasterxml\jackson\core\jackson-databind\2.13.3\jackson-databind-2.13.3.jar;D:\Users\Madonna.Nadar\.m2\repository\com\fasterxml\jackson\core\jackson-annotations\2.13.3\jackson-annotations-2.13.3.jar;D:\Users\Madonna.Nadar\.m2\repository\com\fasterxml\jackson\core\jackson-core\2.13.3\jackson-core-2.13.3.jar;D:\Users\Madonna.Nadar\.m2\repository\org\projectlombok\lombok\1.18.24\lombok-1.18.24.jar;D:\Users\Madonna.Nadar\.m2\repository\io\qameta\allure\allure-testng\2.18.1\allure-testng-2.18.1.jar;D:\Users\Madonna.Nadar\.m2\repository\io\qameta\allure\allure-java-commons\2.18.1\allure-java-commons-2.18.1.jar;D:\Users\Madonna.Nadar\.m2\repository\org\slf4j\slf4j-api\1.7.30\slf4j-api-1.7.30.jar;D:\Users\Madonna.Nadar\.m2\repository\io\qameta\allure\allure-model\2.18.1\allure-model-2.18.1.jar;D:\Users\Madonna.Nadar\.m2\repository\io\qameta\allure\allure-test-filter\2.18.1\allure-test-filter-2.18.1.jar;D:\Users\Madonna.Nadar\.m2\repository\io\qameta\allure\allure-rest-assured\2.18.1\allure-rest-assured-2.18.1.jar;D:\Users\Madonna.Nadar\.m2\repository\io\qameta\allure\allure-attachments\2.18.1\allure-attachments-2.18.1.jar;D:\Users\Madonna.Nadar\.m2\repository\org\freemarker\freemarker\2.3.31\freemarker-2.3.31.jar;D:\Users\Madonna.Nadar\.m2\repository\com\github\javafaker\javafaker\1.0.2\javafaker-1.0.2.jar;D:\Users\Madonna.Nadar\.m2\repository\org\apache\commons\commons-lang3\3.5\commons-lang3-3.5.jar;D:\Users\Madonna.Nadar\.m2\repository\org\yaml\snakeyaml\1.23\snakeyaml-1.23-android.jar;D:\Users\Madonna.Nadar\.m2\repository\com\github\mifmif\generex\1.0.2\generex-1.0.2.jar;D:\Users\Madonna.Nadar\.m2\repository\dk\brics\automaton\automaton\1.11-8\automaton-1.11-8.jar;"/>
    <property name="java.vm.vendor" value="Oracle Corporation"/>
    <property name="sun.arch.data.model" value="64"/>
    <property name="user.variant" value=""/>
    <property name="java.vendor.url" value="http://java.oracle.com/"/>
    <property name="user.timezone" value="Asia/Calcutta"/>
    <property name="java.vm.specification.version" value="1.8"/>
    <property name="os.name" value="Windows 10"/>
    <property name="user.country" value="IN"/>
    <property name="sun.java.launcher" value="SUN_STANDARD"/>
    <property name="sun.boot.library.path" value="C:\Program Files\Java\jdk1.8.0_311\jre\bin"/>
    <property name="sun.java.command" value="D:\Users\Madonna.Nadar\AppData\Local\Temp\surefire3538706937012712808\surefirebooter-20220610115056836_3.jar D:\Users\Madonna.Nadar\AppData\Local\Temp\surefire3538706937012712808 2022-06-10T11-50-56_356-jvmRun1 surefire-20220610115056836_1tmp surefire_0-20220610115056836_2tmp"/>
    <property name="surefire.test.class.path" value="D:\Vinay\APIFrameworkYBL\target\test-classes;D:\Vinay\APIFrameworkYBL\target\classes;D:\Users\Madonna.Nadar\.m2\repository\io\rest-assured\rest-assured\5.0.1\rest-assured-5.0.1.jar;D:\Users\Madonna.Nadar\.m2\repository\org\apache\groovy\groovy\4.0.1\groovy-4.0.1.jar;D:\Users\Madonna.Nadar\.m2\repository\org\apache\groovy\groovy-xml\4.0.1\groovy-xml-4.0.1.jar;D:\Users\Madonna.Nadar\.m2\repository\org\apache\httpcomponents\httpclient\4.5.13\httpclient-4.5.13.jar;D:\Users\Madonna.Nadar\.m2\repository\org\apache\httpcomponents\httpcore\4.4.13\httpcore-4.4.13.jar;D:\Users\Madonna.Nadar\.m2\repository\commons-logging\commons-logging\1.2\commons-logging-1.2.jar;D:\Users\Madonna.Nadar\.m2\repository\commons-codec\commons-codec\1.11\commons-codec-1.11.jar;D:\Users\Madonna.Nadar\.m2\repository\org\apache\httpcomponents\httpmime\4.5.13\httpmime-4.5.13.jar;D:\Users\Madonna.Nadar\.m2\repository\org\hamcrest\hamcrest\2.1\hamcrest-2.1.jar;D:\Users\Madonna.Nadar\.m2\repository\org\ccil\cowan\tagsoup\tagsoup\1.2.1\tagsoup-1.2.1.jar;D:\Users\Madonna.Nadar\.m2\repository\io\rest-assured\json-path\5.0.1\json-path-5.0.1.jar;D:\Users\Madonna.Nadar\.m2\repository\org\apache\groovy\groovy-json\4.0.1\groovy-json-4.0.1.jar;D:\Users\Madonna.Nadar\.m2\repository\io\rest-assured\rest-assured-common\5.0.1\rest-assured-common-5.0.1.jar;D:\Users\Madonna.Nadar\.m2\repository\io\rest-assured\xml-path\5.0.1\xml-path-5.0.1.jar;D:\Users\Madonna.Nadar\.m2\repository\org\testng\testng\7.4.0\testng-7.4.0.jar;D:\Users\Madonna.Nadar\.m2\repository\com\beust\jcommander\1.78\jcommander-1.78.jar;D:\Users\Madonna.Nadar\.m2\repository\org\webjars\jquery\3.5.1\jquery-3.5.1.jar;D:\Users\Madonna.Nadar\.m2\repository\io\rest-assured\json-schema-validator\3.0.0\json-schema-validator-3.0.0.jar;D:\Users\Madonna.Nadar\.m2\repository\com\github\fge\json-schema-validator\2.2.6\json-schema-validator-2.2.6.jar;D:\Users\Madonna.Nadar\.m2\repository\com\google\code\findbugs\jsr305\3.0.0\jsr305-3.0.0.jar;D:\Users\Madonna.Nadar\.m2\repository\joda-time\joda-time\2.3\joda-time-2.3.jar;D:\Users\Madonna.Nadar\.m2\repository\com\googlecode\libphonenumber\libphonenumber\6.2\libphonenumber-6.2.jar;D:\Users\Madonna.Nadar\.m2\repository\com\github\fge\json-schema-core\1.2.5\json-schema-core-1.2.5.jar;D:\Users\Madonna.Nadar\.m2\repository\com\github\fge\uri-template\0.9\uri-template-0.9.jar;D:\Users\Madonna.Nadar\.m2\repository\com\github\fge\msg-simple\1.1\msg-simple-1.1.jar;D:\Users\Madonna.Nadar\.m2\repository\com\github\fge\btf\1.2\btf-1.2.jar;D:\Users\Madonna.Nadar\.m2\repository\com\google\guava\guava\16.0.1\guava-16.0.1.jar;D:\Users\Madonna.Nadar\.m2\repository\com\github\fge\jackson-coreutils\1.8\jackson-coreutils-1.8.jar;D:\Users\Madonna.Nadar\.m2\repository\org\mozilla\rhino\1.7R4\rhino-1.7R4.jar;D:\Users\Madonna.Nadar\.m2\repository\javax\mail\mailapi\1.4.3\mailapi-1.4.3.jar;D:\Users\Madonna.Nadar\.m2\repository\javax\activation\activation\1.1\activation-1.1.jar;D:\Users\Madonna.Nadar\.m2\repository\net\sf\jopt-simple\jopt-simple\4.6\jopt-simple-4.6.jar;D:\Users\Madonna.Nadar\.m2\repository\org\hamcrest\hamcrest-core\1.3\hamcrest-core-1.3.jar;D:\Users\Madonna.Nadar\.m2\repository\com\fasterxml\jackson\core\jackson-databind\2.13.3\jackson-databind-2.13.3.jar;D:\Users\Madonna.Nadar\.m2\repository\com\fasterxml\jackson\core\jackson-annotations\2.13.3\jackson-annotations-2.13.3.jar;D:\Users\Madonna.Nadar\.m2\repository\com\fasterxml\jackson\core\jackson-core\2.13.3\jackson-core-2.13.3.jar;D:\Users\Madonna.Nadar\.m2\repository\org\projectlombok\lombok\1.18.24\lombok-1.18.24.jar;D:\Users\Madonna.Nadar\.m2\repository\io\qameta\allure\allure-testng\2.18.1\allure-testng-2.18.1.jar;D:\Users\Madonna.Nadar\.m2\repository\io\qameta\allure\allure-java-commons\2.18.1\allure-java-commons-2.18.1.jar;D:\Users\Madonna.Nadar\.m2\repository\org\slf4j\slf4j-api\1.7.30\slf4j-api-1.7.30.jar;D:\Users\Madonna.Nadar\.m2\repository\io\qameta\allure\allure-model\2.18.1\allure-model-2.18.1.jar;D:\Users\Madonna.Nadar\.m2\repository\io\qameta\allure\allure-test-filter\2.18.1\allure-test-filter-2.18.1.jar;D:\Users\Madonna.Nadar\.m2\repository\io\qameta\allure\allure-rest-assured\2.18.1\allure-rest-assured-2.18.1.jar;D:\Users\Madonna.Nadar\.m2\repository\io\qameta\allure\allure-attachments\2.18.1\allure-attachments-2.18.1.jar;D:\Users\Madonna.Nadar\.m2\repository\org\freemarker\freemarker\2.3.31\freemarker-2.3.31.jar;D:\Users\Madonna.Nadar\.m2\repository\com\github\javafaker\javafaker\1.0.2\javafaker-1.0.2.jar;D:\Users\Madonna.Nadar\.m2\repository\org\apache\commons\commons-lang3\3.5\commons-lang3-3.5.jar;D:\Users\Madonna.Nadar\.m2\repository\org\yaml\snakeyaml\1.23\snakeyaml-1.23-android.jar;D:\Users\Madonna.Nadar\.m2\repository\com\github\mifmif\generex\1.0.2\generex-1.0.2.jar;D:\Users\Madonna.Nadar\.m2\repository\dk\brics\automaton\automaton\1.11-8\automaton-1.11-8.jar;"/>
    <property name="sun.cpu.endian" value="little"/>
    <property name="user.home" value="D:\Users\Madonna.Nadar"/>
    <property name="user.language" value="en"/>
    <property name="java.specification.vendor" value="Oracle Corporation"/>
    <property name="java.home" value="C:\Program Files\Java\jdk1.8.0_311\jre"/>
    <property name="basedir" value="D:\Vinay\APIFrameworkYBL"/>
    <property name="file.separator" value="\"/>
    <property name="line.separator" value="&#10;"/>
    <property name="java.vm.specification.vendor" value="Oracle Corporation"/>
    <property name="java.specification.name" value="Java Platform API Specification"/>
    <property name="java.awt.graphicsenv" value="sun.awt.Win32GraphicsEnvironment"/>
    <property name="surefire.real.class.path" value="D:\Users\Madonna.Nadar\AppData\Local\Temp\surefire3538706937012712808\surefirebooter-20220610115056836_3.jar"/>
    <property name="sun.boot.class.path" value="C:\Program Files\Java\jdk1.8.0_311\jre\lib\resources.jar;C:\Program Files\Java\jdk1.8.0_311\jre\lib\rt.jar;C:\Program Files\Java\jdk1.8.0_311\jre\lib\sunrsasign.jar;C:\Program Files\Java\jdk1.8.0_311\jre\lib\jsse.jar;C:\Program Files\Java\jdk1.8.0_311\jre\lib\jce.jar;C:\Program Files\Java\jdk1.8.0_311\jre\lib\charsets.jar;C:\Program Files\Java\jdk1.8.0_311\jre\lib\jfr.jar;C:\Program Files\Java\jdk1.8.0_311\jre\classes"/>
    <property name="user.script" value=""/>
    <property name="sun.management.compiler" value="HotSpot 64-Bit Tiered Compilers"/>
    <property name="java.runtime.version" value="1.8.0_311-b11"/>
    <property name="user.name" value="Madonna.Nadar"/>
    <property name="path.separator" value=";"/>
    <property name="os.version" value="10.0"/>
    <property name="java.endorsed.dirs" value="C:\Program Files\Java\jdk1.8.0_311\jre\lib\endorsed"/>
    <property name="java.runtime.name" value="Java(TM) SE Runtime Environment"/>
    <property name="file.encoding" value="Cp1252"/>
    <property name="java.vm.name" value="Java HotSpot(TM) 64-Bit Server VM"/>
    <property name="localRepository" value="D:\Users\Madonna.Nadar\.m2\repository"/>
    <property name="java.vendor.url.bug" value="http://bugreport.sun.com/bugreport/"/>
    <property name="java.io.tmpdir" value="D:\Users\Madonna.Nadar\AppData\Local\Temp\"/>
    <property name="java.version" value="1.8.0_311"/>
    <property name="user.dir" value="D:\Vinay\APIFrameworkYBL"/>
    <property name="os.arch" value="amd64"/>
    <property name="java.vm.specification.name" value="Java Virtual Machine Specification"/>
    <property name="java.awt.printerjob" value="sun.awt.windows.WPrinterJob"/>
    <property name="sun.os.patch.level" value=""/>
    <property name="java.library.path" value="C:\Program Files\Java\jdk1.8.0_311\jre\bin;C:\windows\Sun\Java\bin;C:\windows\system32;C:\windows;C:\Program Files (x86)\Common Files\Oracle\Java\javapath;C:\windows\system32;C:\windows;C:\windows\System32\Wbem;C:\windows\System32\WindowsPowerShell\v1.0\;C:\windows\System32\OpenSSH\;C:\Program Files\Java\jdk1.8.0_311;C:\Program Files\nodejs\;D:\Users\Madonna.Nadar\AppData\Local\Microsoft\WindowsApps;D:\Users\Madonna.Nadar\AppData\Local\Programs\Git\cmd;C:\apache-maven-3.8.4\bin;C:\allure-2.10.0\bin;;."/>
    <property name="java.vm.info" value="mixed mode"/>
    <property name="java.vendor" value="Oracle Corporation"/>
    <property name="java.vm.version" value="25.311-b11"/>
    <property name="java.ext.dirs" value="C:\Program Files\Java\jdk1.8.0_311\jre\lib\ext;C:\windows\Sun\Java\lib\ext"/>
    <property name="sun.io.unicode.encoding" value="UnicodeLittle"/>
    <property name="java.class.version" value="52.0"/>
  </properties>
  <testcase name="toCreateGetUser" classname="com.ybl.tests.UserAPITest" time="2.769">
    <system-out><![CDATA[Request method:	GET
Request URI:	https://reqres.in/api/users/?page=2
Proxy:			<none>
Request params:	<none>
Query params:	<none>
Form params:	<none>
Path params:	<none>
Headers:		Accept=*/*
				Content-Type=application/json
Cookies:		<none>
Multiparts:		<none>
Body:			<none>
HTTP/1.1 200 OK
Date: Fri, 10 Jun 2022 06:20:59 GMT
Content-Type: application/json; charset=utf-8
Transfer-Encoding: chunked
Connection: keep-alive
X-Powered-By: Express
Access-Control-Allow-Origin: *
Etag: W/"406-ut0vzoCuidvyMf8arZpMpJ6ZRDw"
Via: 1.1 vegur
Cache-Control: max-age=14400
CF-Cache-Status: MISS
Expect-CT: max-age=604800, report-uri="https://report-uri.cloudflare.com/cdn-cgi/beacon/expect-ct"
Report-To: {"endpoints":[{"url":"https:\/\/a.nel.cloudflare.com\/report\/v3?s=oIyirlbqa7OUnidK5PxuMA3f5fs0nBeRMdNJT0HjdZHu0T3YAO7YMZE0tEJYo8%2BpQPS0YI331OWPsP5HYWJZRojA4UdoFjKXiqaApRPMFEjMtGf%2BCGQkbAu7L%2Bk%3D"}],"group":"cf-nel","max_age":604800}
NEL: {"success_fraction":0,"report_to":"cf-nel","max_age":604800}
Vary: Accept-Encoding
Server: cloudflare
CF-RAY: 71900117bd660e54-BOM
Content-Encoding: gzip
alt-svc: h3=":443"; ma=86400, h3-29=":443"; ma=86400

{
    "page": 2,
    "per_page": 6,
    "total": 12,
    "total_pages": 2,
    "data": [
        {
            "id": 7,
            "email": "michael.lawson@reqres.in",
            "first_name": "Michael",
            "last_name": "Lawson",
            "avatar": "https://reqres.in/img/faces/7-image.jpg"
        },
        {
            "id": 8,
            "email": "lindsay.ferguson@reqres.in",
            "first_name": "Lindsay",
            "last_name": "Ferguson",
            "avatar": "https://reqres.in/img/faces/8-image.jpg"
        },
        {
            "id": 9,
            "email": "tobias.funke@reqres.in",
            "first_name": "Tobias",
            "last_name": "Funke",
            "avatar": "https://reqres.in/img/faces/9-image.jpg"
        },
        {
            "id": 10,
            "email": "byron.fields@reqres.in",
            "first_name": "Byron",
            "last_name": "Fields",
            "avatar": "https://reqres.in/img/faces/10-image.jpg"
        },
        {
            "id": 11,
            "email": "george.edwards@reqres.in",
            "first_name": "George",
            "last_name": "Edwards",
            "avatar": "https://reqres.in/img/faces/11-image.jpg"
        },
        {
            "id": 12,
            "email": "rachel.howell@reqres.in",
            "first_name": "Rachel",
            "last_name": "Howell",
            "avatar": "https://reqres.in/img/faces/12-image.jpg"
        }
    ],
    "support": {
        "url": "https://reqres.in/#support-heading",
        "text": "To keep ReqRes free, contributions towards server costs are appreciated!"
    }
}
]]></system-out>
    <system-err><![CDATA[SLF4J: Failed to load class "org.slf4j.impl.StaticLoggerBinder".
SLF4J: Defaulting to no-operation (NOP) logger implementation
SLF4J: See http://www.slf4j.org/codes.html#StaticLoggerBinder for further details.
]]></system-err>
  </testcase>
  <testcase name="toCreateUser" classname="com.ybl.tests.UserAPITest" time="1.692">
    <system-out><![CDATA[Request method:	POST
Request URI:	https://reqres.in/api/users/
Proxy:			<none>
Request params:	<none>
Query params:	<none>
Form params:	<none>
Path params:	<none>
Headers:		Accept=*/*
				Content-Type=application/json
Cookies:		<none>
Multiparts:		<none>
Body:
{
    "name": "morpheus",
    "job": "leader"
}
HTTP/1.1 201 Created
Date: Fri, 10 Jun 2022 06:21:01 GMT
Content-Type: application/json; charset=utf-8
Content-Length: 84
Connection: keep-alive
X-Powered-By: Express
Access-Control-Allow-Origin: *
Etag: W/"54-nw+bvYUPz5NbwE0O+LVH8Og08Uw"
Via: 1.1 vegur
CF-Cache-Status: DYNAMIC
Expect-CT: max-age=604800, report-uri="https://report-uri.cloudflare.com/cdn-cgi/beacon/expect-ct"
Report-To: {"endpoints":[{"url":"https:\/\/a.nel.cloudflare.com\/report\/v3?s=aBRzz27ZQH5x3%2Fhxhf5niFxahwLpejxPpHjMtYx2dTfHba4qFf4JxD6OSmUvG5AjPFVoUQO%2BVDtdGakCb92IkEkhk9XVLwM%2BFt%2FVqVNHfaI6y4nhTdOEbGr1ldc%3D"}],"group":"cf-nel","max_age":604800}
NEL: {"success_fraction":0,"report_to":"cf-nel","max_age":604800}
Server: cloudflare
CF-RAY: 71900121dec784e3-BOM
alt-svc: h3=":443"; ma=86400, h3-29=":443"; ma=86400

{
    "name": "morpheus",
    "job": "leader",
    "id": "177",
    "createdAt": "2022-06-10T06:21:01.322Z"
}
]]></system-out>
  </testcase>
  <testcase name="toUpdatePlaylist" classname="com.ybl.tests.UserAPITest" time="0.901">
    <system-out><![CDATA[Request method:	PUT
Request URI:	https://reqres.in/api/users/2
Proxy:			<none>
Request params:	<none>
Query params:	<none>
Form params:	<none>
Path params:	<none>
Headers:		Accept=*/*
				Content-Type=application/json
Cookies:		<none>
Multiparts:		<none>
Body:
{
    "name": "morpheus",
    "job": "zion resident"
}
HTTP/1.1 200 OK
Date: Fri, 10 Jun 2022 06:21:02 GMT
Content-Type: application/json; charset=utf-8
Transfer-Encoding: chunked
Connection: keep-alive
X-Powered-By: Express
Access-Control-Allow-Origin: *
Etag: W/"50-HKYQc80Lxpn9cLoaaOCgQsngFCE"
Via: 1.1 vegur
CF-Cache-Status: DYNAMIC
Expect-CT: max-age=604800, report-uri="https://report-uri.cloudflare.com/cdn-cgi/beacon/expect-ct"
Report-To: {"endpoints":[{"url":"https:\/\/a.nel.cloudflare.com\/report\/v3?s=C%2FnaMe7LhWhDJ2B1Hj0c%2BJBlYPmO2Xskx%2FQWdfsVsaXP2VTDQ6yZ0tpjWRImn%2F8pPYBf6zS4G7roJKtOci5jpEBDJmc60AscByhO164pYqCq3I6WPXUAOaxhdDM%3D"}],"group":"cf-nel","max_age":604800}
NEL: {"success_fraction":0,"report_to":"cf-nel","max_age":604800}
Vary: Accept-Encoding
Server: cloudflare
CF-RAY: 71900128ed7531d5-BOM
Content-Encoding: gzip
alt-svc: h3=":443"; ma=86400, h3-29=":443"; ma=86400

{
    "name": "morpheus",
    "job": "zion resident",
    "updatedAt": "2022-06-10T06:21:02.427Z"
}
]]></system-out>
  </testcase>
</testsuite>